Business Statistics Assessment IB94X0 2020-2021 #1
…
## 
## -- Column specification ---------------------------------------------------------------------------------------------------------------------------------------------------------------------------
## cols(
##   Outlet_ID = col_character(),
##   outlettype = col_character(),
##   sales_1 = col_double(),
##   sales_2 = col_double(),
##   intrial = col_logical(),
##   staff_turnover = col_double()
## )

salesdata

## # A tibble: 540 x 6
##    Outlet_ID outlettype              sales_1   sales_2 intrial staff_turnover
##    <chr>     <chr>                     <dbl>     <dbl> <lgl>            <dbl>
##  1 7cbc      community_convenience  6484255.  6439510. TRUE           0.00111
##  2 rd0E      community_convenience  7096007.  7345762. TRUE           0      
##  3 fVhX      community_convenience  7823001.  7832002. TRUE           0.00468
##  4 HvIp      community_convenience 10865259. 10630492. FALSE          0      
##  5 HGBE      community_convenience 10825611. 10611860. FALSE          0.00206
##  6 JI92      community_convenience 15629310. 16313749. TRUE           0.00143
##  7 DoWu      community_convenience  5577459.  5694963. TRUE           0.00148
##  8 p2SG      community_convenience  7580760.  8597156. TRUE           0      
##  9 IVBl      community_convenience  5308958.  5523019. FALSE          0      
## 10 CGzo      community_convenience 13089081. 13438805. TRUE           0      
## # ... with 530 more rows
…
